…
Chao A, Jost L (2015). “Estimating Diversity and Entropy Profiles via
Discovery Rates of New Species.” *Methods in Ecology and Evolution*,
**6**(8), 873–882.
[doi:10.1111/2041-210X.12349](https://doi.org/10.1111/2041-210X.12349) .

## Examples

``` r
abd_freq_count(as.numeric(paracou_6_abd[1, ]))
#> # A tibble: 25 × 2
#>    abundance number_of_species
#>        <dbl>         <int[1d]>
#>  1         1                84
#>  2         2                35
#>  3         3                19
#>  4         4                14
#>  5         5                 5
#>  6         6                 4
#>  7         7                 3
#>  8         8                 3
#>  9        10                 2
#> 10        11                 1
#> # ℹ 15 more rows
```
