Diversity Profile of a Community — profile_hill • divent
…
 Marcon E, Hérault B, Baraloto C, Lang G (2012).
“The Decomposition of Shannon's Entropy and a Confidence Interval for Beta Diversity.”
Oikos, 121(4), 516--522.
doi:10.1111/j.1600-0706.2011.19267.x
.

    Examples

profile_hill(paracou_6_abd)
#> # A tibble: 84 × 4
#>    site      estimator order diversity
#>    <chr>     <chr>     <dbl>     <dbl>
#>  1 subplot_1 UnveilJ     0        356 
#>  2 subplot_1 UnveilJ     0.1      316.
#>  3 subplot_1 UnveilJ     0.2      280.
#>  4 subplot_1 UnveilJ     0.3      246.
#>  5 subplot_1 UnveilJ     0.4      216.
#>  6 subplot_1 UnveilJ     0.5      188.
#>  7 subplot_1 UnveilJ     0.6      164.
#>  8 subplot_1 UnveilJ     0.7      143.
#>  9 subplot_1 UnveilJ     0.8      125.
#> 10 subplot_1 UnveilJ     0.9      109.
#> # … with 74 more rows
…
