…
Marcon E, Hérault B, Baraloto C, Lang G (2012). “The Decomposition of
Shannon's Entropy and a Confidence Interval for *Beta* Diversity.”
*Oikos*, **121**(4), 516–522.
[doi:10.1111/j.1600-0706.2011.19267.x](https://doi.org/10.1111/j.1600-0706.2011.19267.x)
.

## Examples

``` r
profile_phylo(paracou_6_abd, tree = paracou_6_taxo)
#> # A tibble: 84 × 3
#>    site      order diversity
#>    <chr>     <dbl>     <dbl>
#>  1 subplot_1   0       180. 
#>  2 subplot_1   0.1     156. 
#>  3 subplot_1   0.2     135. 
#>  4 subplot_1   0.3     116. 
#>  5 subplot_1   0.4      99.0
#>  6 subplot_1   0.5      84.7
#>  7 subplot_1   0.6      72.5
#>  8 subplot_1   0.7      62.3
#>  9 subplot_1   0.8      53.8
#> 10 subplot_1   0.9      46.7
#> # ℹ 74 more rows
```
