…
Marcon E, Hérault B, Baraloto C, Lang G (2012). “The Decomposition of
Shannon's Entropy and a Confidence Interval for *Beta* Diversity.”
*Oikos*, **121**(4), 516–522.
[doi:10.1111/j.1600-0706.2011.19267.x](https://doi.org/10.1111/j.1600-0706.2011.19267.x)
.

## Examples

``` r
# Similarity matrix
Z <- fun_similarity(paracou_6_fundist)
# Profile
profile_similarity(paracou_6_abd, similarities = Z, q = 2)
#> # A tibble: 84 × 4
#>    site      estimator order diversity
#>    <chr>     <chr>     <dbl>     <dbl>
#>  1 subplot_1 UnveilJ     0        1.31
#>  2 subplot_1 UnveilJ     0.1      1.31
#>  3 subplot_1 UnveilJ     0.2      1.31
#>  4 subplot_1 UnveilJ     0.3      1.31
#>  5 subplot_1 UnveilJ     0.4      1.31
#>  6 subplot_1 UnveilJ     0.5      1.31
#>  7 subplot_1 UnveilJ     0.6      1.31
#>  8 subplot_1 UnveilJ     0.7      1.31
#>  9 subplot_1 UnveilJ     0.8      1.31
#> 10 subplot_1 UnveilJ     0.9      1.31
#> # ℹ 74 more rows
```
