Abundance Frequency Count of a Community — abd_freq_count • divent
…
    The Abundance Frequency Count Chao2015divent is the number
of species observed each number of times.
It is a way to summarize the species distribution.

It can be estimated at a specified level of interpolation or extrapolation.
Extrapolation relies on the estimation of the estimation of the asymptotic
distribution of the community by probabilities and eq. (5)
of Chao2014divent.

    References

    Examples

abd_freq_count(as.numeric(paracou_6_abd[1, ]))
#> # A tibble: 25 × 2
#>    abundance number_of_species
#>        <int>         <int[1d]>
#>  1         1                84
#>  2         2                35
#>  3         3                19
#>  4         4                14
#>  5         5                 5
#>  6         6                 4
#>  7         7                 3
#>  8         8                 3
#>  9        10                 2
#> 10        11                 1
#> # ℹ 15 more rows
…
